{
    "errors": [
        {
            "message": "Parse error on \"gitlab-org/graphql-sandbox\" (STRING) at [1, 73]",
            "locations": [
                {
                    "line": 1,
                    "column": 73
                }
            ]
        }
    ]
}
